<svg width="600" height="450" viewBox="0 0 600 450" fill="none" xmlns="http://www.w3.org/2000/svg">
<g clip-path="url(#clip0)">
<rect width="600" height="450" fill="#7189BF"/>
<rect x="-0.0664062" y="-224.006" width="300.355" height="300.355" fill="#FFC785"/>
<rect x="150.111" y="-73.8281" width="150.178" height="150.178" fill="#DF7599"/>
<rect x="-0.0664062" y="76.3496" width="300.355" height="300.355" rx="150.178" fill="#DF7599"/>
<path d="M-0.0664062 524.381C-0.0664062 441.44 67.1704 374.203 150.111 374.203H300.289V674.559H-0.0664062V524.381Z" fill="#FFC785"/>
<path d="M300.289 -224.006H600.645V76.3496H450.467C367.526 76.3496 300.289 9.11275 300.289 -73.8281V-224.006Z" fill="#344D86"/>
<path d="M300.289 76.3496V376.705H450.467V76.3496H300.289Z" fill="#FFC785"/>
<rect x="300.289" y="374.203" width="300.355" height="300.355" fill="#72D6C9"/>
</g>
<defs>
<clipPath id="clip0">
<rect width="600" height="450" fill="white"/>
</clipPath>
</defs>
</svg>
