<svg width="72" height="72" viewBox="0 0 72 72" fill="none" xmlns="http://www.w3.org/2000/svg">
<path d="M27.651 54.2834C44.632 54.2834 53.92 40.2144 53.92 28.0134C53.92 27.6144 53.9201 27.2164 53.8931 26.8204C55.7001 25.5134 57.26 23.8954 58.5 22.0414C56.814 22.7884 55.027 23.2774 53.197 23.4944C55.124 22.3404 56.567 20.5254 57.256 18.3874C55.443 19.4624 53.4611 20.2204 51.3931 20.6284C48.5311 17.5854 43.984 16.8404 40.301 18.8114C36.618 20.7824 34.7151 24.9794 35.6591 29.0484C28.2361 28.6764 21.3201 25.1704 16.6321 19.4024C14.1811 23.6214 15.433 29.0184 19.49 31.7274C18.021 31.6834 16.5831 31.2874 15.2991 30.5714C15.2991 30.6094 15.2991 30.6494 15.2991 30.6884C15.3011 35.0834 18.399 38.8684 22.707 39.7394C21.347 40.1094 19.9211 40.1634 18.5381 39.8974C19.7471 43.6584 23.2131 46.2344 27.1631 46.3094C23.8941 48.8784 19.855 50.2734 15.697 50.2694C14.963 50.2674 14.229 50.2234 13.5 50.1354C17.722 52.8454 22.634 54.2824 27.651 54.2754" fill="#F8F8F8"/>
</svg>
