{
  "title": "Prt Mny",
  "thumbnail": "/content/uploads/2018/prt-mny-thumbnail.png",
  "hero": "/content/uploads/2018/prt-mny-hero.jpg",
  "goal": "Keeping track of what goes in and out of my wallet",
  "date": "2018-07-01",
  "type": "personal project",
  "status": "completed",
  "sortOrder": 3,
  "website": "https://prt-mny.amxmln.com",
  "tags": [
    "financial",
    "progressive web app",
    "ui design"
  ],
  "details": "<p>Have you ever gotten money from an ATM only to find your wallet empty again two days after? It happened to me and I knew I didn’t lose it, and I certainly hadn’t been robbed. The truth is, most people don’t pay much attention to the change they spend from their wallets, even though over time that can become quite the sum of money.</p><p>There’s plenty of money management apps out there, but most I found wanted access to my bank account, or made adding transactions so complicated that it became cumbersome. I wanted something simple, quick, and safe to keep track of what went in and out of my wallet. So I created Prt Mny.</p>",
  "blocks": [
    {
      "template": "component",
      "aspectRatio": "2:1",
      "name": "PrtMnyLoader"
    },
    {
      "template": "image-and-text",
      "imageFirst": true,
      "image": {
        "src": "/content/uploads/2018/prt-mny-components.png",
        "alt": "Various components of the Prt Mny app spread out on a background of green circles"
      },
      "text": "Since entering a transaction has to be done manually after every purchase, it had to be as quick and easy as possible. Thanks to the compact “Add Transaction” overlay, entering a transaction takes just typing the amount and selecting the icon that best describes the nature of the transaction."
    },
    {
      "template": "image-and-text",
      "imageFirst": false,
      "image": {
        "src": "/content/uploads/2018/prt-mny-icons.svg",
        "alt": "Some of the icons to be found in the application. The icons for pizza, shopping bag, ice cream, and hair dryer are scaled up and highlighted in a green colour"
      },
      "text": "All icons I created for Prt Mny are set within a 18x18px square and use rounded line caps with a 2px stroke. They are meant to cover a large amount of different items people spend money getting, while being generic enough to apply to multiple use cases as to not overwhelm the user with too much selection and making a specific icon hard to find. In the settings of the app, a custom description can be entered for each icon to make adding frequent transactions even more efficient."
    },
    {
      "template": "single-image",
      "image": {
        "src": "/content/uploads/2018/prt-mny-screenshots.png",
        "alt": "The three main screens of Prt Mny: Home, Transactions and Settings"
      }
    }
  ]
}
