{
  "title": "Magistan",
  "thumbnail": "/content/uploads/2019/magistan-thumbnail.jpg",
  "hero": "/content/uploads/2019/magistan-hero-alt.jpg",
  "goal": "",
  "date": "2019-01-01",
  "type": "university project",
  "status": "completed",
  "sortOrder": 2,
  "website": "",
  "tags": [
    "print",
    "vectors",
    "illustration",
    "game design",
    "playing cards"
  ],
  "details": "<p>In my third semester studying communication design, I had the oppurtunity to take part in a class on game design that dealt with why people play. The final project for this class was to create a prototype for a game, either digital or analog, and I decided to go for a traditional card game to balance out a semester otherwise firmly rooted in digital work.</p><p>The result is a card-game with the working title of “Magistan”, which allows the players to slip into the role of different magicians robbed of most of their power and trapped in an arena by an evil duke. It is now up to them whether they want to gather enough power through killing monsters to teleport away on their own, or to work together and defeat the duke.</p><p>The core gameplay-mechanic revolves around creating different spells from element-cards which are rewarded for killing monsters. It’s an easy system to get into, but it requires careful planning and strategy to fully master.</p>",
  "blocks": [
    {
      "template": "full-width-image",
      "image": {
        "caption": "",
        "src": "/content/uploads/2019/magistan-hero.jpg",
        "alt": "Many of the Magistan cards displayed in a tilted grid"
      }
    },
    {
      "template": "component-and-text",
      "componentFirst": true,
      "text": "In order to be able to come up with a large amount of monster illustrations in a very short amount of time, I developed a system consisting of multiple separate modules that I could then combine into unique shapes. These monsters all share common attributes, linking them together and to their respective elements, causing a visually interesting, yet compatible appearance. Ideally, this system could have been expanded into a program that would’ve generated a near infinite amount of unique monsters, but unfortunately, I did not have enough time for that.",
      "name": "MagistanMonsters",
      "aspectRatio": "4:3"
    },
    {
      "template": "two-images",
      "images": [
        {
          "src": "/content/uploads/2019/magistan-elements.jpg",
          "alt": "The Magistan card box with the four element cards spread out in front of it",
          "caption": ""
        },
        {
          "src": "/content/uploads/2019/magistan-item.jpg",
          "alt": "An exemplary item card, the amulet of water resistance",
          "caption": ""
        }
      ]
    },
    {
      "template": "two-images",
      "images": [
        {
          "caption": "",
          "src": "/content/uploads/2019/magistan-role.jpg",
          "alt": "One of the role cards, the paladin"
        },
        {
          "caption": "",
          "src": "/content/uploads/2019/magistan-monster.jpg",
          "alt": "An exemplary monster card, a level four fire beast"
        }
      ]
    }
  ]
}
