{
  "title": "#vic-19",
  "thumbnail": "/content/uploads/2019/vic-thumbnail.jpg",
  "hero": "/content/uploads/2019/vic-hero-alt.jpg",
  "goal": "Get familiar with Figma and improve my vector art skills",
  "date": "2019-02-01",
  "type": "personal project",
  "status": "completed",
  "sortOrder": 4,
  "website": "",
  "tags": [
    "art",
    "vectors",
    "illustration",
    "2d",
    "challenge",
    "vic19"
  ],
  "details": "<p>I always strive to learn new things and improve existing skills, which is why I set myself the challenge to make one vector illustration every day for the entire month of February in 2019. Every day I either picked a topic myself, or turned to my girlfriend or the internet for inspiration and then continued to make an illustration for said topic, trying to finish in under two hours. Here you can find a compilation of the pieces I’m most proud of.</p><p>Personal challenges like that are a great way to improve a skill and make sure that at least a little time is dedicated every day to doing something productive and creative. I feel like I’ve become more confident in my illustration skills and while I’m aware that I still have a long way to go, I’m still proud of what I achieved here.</p>",
  "blocks": [
    {
      "template": "two-images",
      "images": [
        {
          "caption": "From simple geometric shapes and some boolean magic…",
          "src": "/content/uploads/2019/vic-day-2-outline.jpg",
          "alt": "The outlines of a campfire"
        },
        {
          "caption": "…to a lovely campfire, day after day.",
          "src": "/content/uploads/2019/vic-day-2.jpg",
          "alt": "A campfire"
        }
      ]
    },
    {
      "template": "two-images",
      "images": [
        {
          "src": "/content/uploads/2019/vic-day-4.jpg",
          "alt": "A steaming to-go cup of chai",
          "caption": "Some some days you just need a nice cup of <strike>coffee</strike> chai!"
        },
        {
          "src": "/content/uploads/2019/vic-day-19.jpg",
          "alt": "A purple fish hanging from a hook",
          "caption": "On others, all you get is <em>fish</em>. What?"
        }
      ]
    },
    {
      "template": "two-images",
      "images": [
        {
          "src": "/content/uploads/2019/vic-day-3.jpg",
          "alt": "My personal interpretation of a piranha plant",
          "caption": ""
        },
        {
          "src": "/content/uploads/2019/vic-day-26.jpg",
          "alt": "Portrait of a woman with a hat and blue hair",
          "caption": ""
        }
      ]
    },
    {
      "template": "two-images",
      "images": [
        {
          "caption": "Some days it was hard to draw…",
          "src": "/content/uploads/2019/vic-day-23.jpg",
          "alt": "A pencil with its tip broken off"
        },
        {
          "caption": "…and on others I felt confident enough to draw my face.",
          "src": "/content/uploads/2019/vic-day-28.jpg",
          "alt": "A self-portrait of me"
        }
      ]
    }
  ]
}
